{
    "org.apache.cordova.device": {
        "source": {
            "type": "registry",
            "id": "org.apache.cordova.device"
        }
    },
    "org.apache.cordova.file": {
        "source": {
            "type": "registry",
            "id": "org.apache.cordova.file"
        }
    },
    "org.apache.cordova.file-transfer": {
        "source": {
            "type": "registry",
            "id": "org.apache.cordova.file-transfer"
        }
    },
    "org.apache.cordova.media": {
        "source": {
            "type": "registry",
            "id": "org.apache.cordova.media"
        }
    },
    "cordova-plugin-zip": {
        "source": {
            "type": "git",
            "url": "https://github.com/MobileChromeApps/zip.git",
            "subdir": "."
        }
    },
    "org.chromium.zip": {
        "source": {
            "type": "registry",
            "id": "org.chromium.zip"
        }
    },
    "com.synconset.cordovaHTTP": {
        "source": {
            "type": "git",
            "url": "https://github.com/wymsee/cordova-HTTP.git",
            "subdir": "."
        }
    },
    "it.mobimentum.phonegapspinnerplugin": {
        "source": {
            "type": "git",
            "url": "https://github.com/mobimentum/phonegap-plugin-loading-spinner.git",
            "subdir": "."
        }
    },
    "org.apache.cordova.dialogs": {
        "source": {
            "type": "registry",
            "id": "org.apache.cordova.dialogs"
        }
    },
    "org.apache.cordova.network-information": {
        "source": {
            "type": "registry",
            "id": "org.apache.cordova.network-information"
        }
    },
    "org.apache.cordova.console": {
        "source": {
            "type": "registry",
            "id": "org.apache.cordova.console"
        }
    },
    "de.appplant.cordova.plugin.background-mode": {
        "source": {
            "type": "git",
            "url": "https://github.com/katzer/cordova-plugin-background-mode.git",
            "subdir": "."
        }
    },
    "com.ionic.keyboard": {
        "source": {
            "type": "registry",
            "id": "com.ionic.keyboard"
        }
    },
    "org.apache.cordova.splashscreen": {
        "source": {
            "type": "registry",
            "id": "org.apache.cordova.splashscreen"
        }
    },
    "cordova-plugin-http": {
        "source": {
            "type": "registry",
            "id": "cordova-plugin-http"
        },
        "is_top_level": true,
        "variables": {}
    }
}